Chapter 2: Exploring, wrangling, and transforming cohort data
…
Data entry errors

Small sample sizes in some levels

Ease of interpretation

While discretizing a continuous variable is often discouraged, some variables tend to be more naturally discrete. For example, you usually take one or two pills, not one point five. Sometimes, reducing the number of levels in these discrete variables makes sense, such as when there is large error in measurement or data entry, small sample sizes in some levels, or easier interpretation.

Reducing levels of naturally discrete variables

tidier_framingham %>%
    count(cigarettes_per_day)

# A tibble: 46 x 2
   cigarettes_per_day     n
                <dbl> <int>
 1                  0  6598
 2                  1   162
 3                  2    98
 4                  3   183
 5                  4    65
 6                  5   181
 7                  6    77
 8                  7    47
 9                  8    52
10                  9   149
# … with 36 more rows
…
